\relax 
\providecommand\hyper@newdestlabel[2]{}
\providecommand\babel@aux[2]{}
\@nameuse{bbl@beforestart}
\providecommand\HyperFirstAtBeginDocument{\AtBeginDocument}
\HyperFirstAtBeginDocument{\ifx\hyper@anchor\@undefined
\global\let\oldcontentsline\contentsline
\gdef\contentsline#1#2#3#4{\oldcontentsline{#1}{#2}{#3}}
\global\let\oldnewlabel\newlabel
\gdef\newlabel#1#2{\newlabelxx{#1}#2}
\gdef\newlabelxx#1#2#3#4#5#6{\oldnewlabel{#1}{{#2}{#3}}}
\AtEndDocument{\ifx\hyper@anchor\@undefined
\let\contentsline\oldcontentsline
\let\newlabel\oldnewlabel
\fi}
\fi}
\global\let\hyper@last\relax 
\gdef\HyperFirstAtBeginDocument#1{#1}
\providecommand\HyField@AuxAddToFields[1]{}
\providecommand\HyField@AuxAddToCoFields[2]{}
\babel@aux{english}{}
\newlabel{index::doc}{{}{1}{}{section*.2}{}}
\@writefile{toc}{\contentsline {chapter}{\numberline {1}Installation}{3}{chapter.1}\protected@file@percent }
\@writefile{lof}{\addvspace {10\p@ }}
\@writefile{lot}{\addvspace {10\p@ }}
\newlabel{usage/installation:installation}{{1}{3}{Installation}{chapter.1}{}}
\newlabel{usage/installation::doc}{{1}{3}{Installation}{chapter.1}{}}
\@writefile{toc}{\contentsline {section}{\numberline {1.1}Pre\sphinxhyphen {}requisites}{3}{section.1.1}\protected@file@percent }
\newlabel{usage/installation:pre-requisites}{{1.1}{3}{Pre\sphinxhyphen {}requisites}{section.1.1}{}}
\@writefile{toc}{\contentsline {section}{\numberline {1.2}Building}{3}{section.1.2}\protected@file@percent }
\newlabel{usage/installation:building}{{1.2}{3}{Building}{section.1.2}{}}
\@writefile{toc}{\contentsline {chapter}{\numberline {2}Quickstart}{5}{chapter.2}\protected@file@percent }
\@writefile{lof}{\addvspace {10\p@ }}
\@writefile{lot}{\addvspace {10\p@ }}
\newlabel{usage/quickstart:quickstart}{{2}{5}{Quickstart}{chapter.2}{}}
\newlabel{usage/quickstart::doc}{{2}{5}{Quickstart}{chapter.2}{}}
\@writefile{toc}{\contentsline {chapter}{\numberline {3}Core}{7}{chapter.3}\protected@file@percent }
\@writefile{lof}{\addvspace {10\p@ }}
\@writefile{lot}{\addvspace {10\p@ }}
\newlabel{core/index:core}{{3}{7}{Core}{chapter.3}{}}
\newlabel{core/index::doc}{{3}{7}{Core}{chapter.3}{}}
\@writefile{toc}{\contentsline {section}{\numberline {3.1}Syntax}{7}{section.3.1}\protected@file@percent }
\newlabel{core/syntax/index:syntax}{{3.1}{7}{Syntax}{section.3.1}{}}
\newlabel{core/syntax/index::doc}{{3.1}{7}{Syntax}{section.3.1}{}}
\@writefile{toc}{\contentsline {subsection}{\numberline {3.1.1}Signatures}{7}{subsection.3.1.1}\protected@file@percent }
\newlabel{core/syntax/signature:signatures}{{3.1.1}{7}{Signatures}{subsection.3.1.1}{}}
\newlabel{core/syntax/signature::doc}{{3.1.1}{7}{Signatures}{subsection.3.1.1}{}}
\@writefile{toc}{\contentsline {subsubsection}{Propositional signatures}{7}{subsubsection*.3}\protected@file@percent }
\newlabel{core/syntax/signature:propositional-signatures}{{3.1.1}{7}{Propositional signatures}{subsubsection*.3}{}}
\@writefile{toc}{\contentsline {subsubsection}{API}{8}{subsubsection*.4}\protected@file@percent }
\newlabel{core/syntax/signature:api}{{3.1.1}{8}{API}{subsubsection*.4}{}}
\newlabel{core/syntax/signature:_CPPv4N4ct4l10ConnectiveE}{{3.1.1}{8}{API}{section*.5}{}}
\newlabel{core/syntax/signature:classct4l_1_1_connective}{{3.1.1}{8}{API}{section*.6}{}}
\newlabel{core/syntax/signature:_CPPv4N4ct4l10Connective10ConnectiveEv}{{3.1.1}{8}{}{section*.7}{}}
\newlabel{core/syntax/signature:classct4l_1_1_connective_1a2da120bcda0368c340b85ec30e2cdd9d}{{3.1.1}{8}{}{section*.9}{}}
\newlabel{core/syntax/signature:_CPPv4N4ct4l10Connective10ConnectiveERKDT7_symbolEKDT6_arityE}{{3.1.1}{8}{}{section*.10}{}}
\newlabel{core/syntax/signature:classct4l_1_1_connective_1a561283369680c844529975256b41fc7a}{{3.1.1}{8}{}{section*.12}{}}
\newlabel{core/syntax/signature:_CPPv4NK4ct4l10Connective6symbolEv}{{3.1.1}{9}{}{section*.13}{}}
\newlabel{core/syntax/signature:classct4l_1_1_connective_1af99692e8320abb53f3660fc3f9dba383}{{3.1.1}{9}{}{section*.15}{}}
\newlabel{core/syntax/signature:_CPPv4NK4ct4l10Connective5arityEv}{{3.1.1}{9}{}{section*.16}{}}
\newlabel{core/syntax/signature:classct4l_1_1_connective_1a66ca46983ae2fdad0809ac8c048b2ab8}{{3.1.1}{9}{}{section*.18}{}}
\newlabel{core/syntax/signature:_CPPv4NK4ct4l10ConnectiveeqERK10Connective}{{3.1.1}{9}{}{section*.19}{}}
\newlabel{core/syntax/signature:classct4l_1_1_connective_1a762c60706da79bfddea230a7ced47c34}{{3.1.1}{9}{}{section*.21}{}}
\newlabel{core/syntax/signature:_CPPv4NK4ct4l10ConnectiveltERK10Connective}{{3.1.1}{9}{}{section*.22}{}}
\newlabel{core/syntax/signature:classct4l_1_1_connective_1a78eebdf7db5ecba941803bc38ebca64a}{{3.1.1}{9}{}{section*.24}{}}
\newlabel{core/syntax/signature:_CPPv4NK4ct4l10ConnectiveneERK10Connective}{{3.1.1}{9}{}{section*.25}{}}
\newlabel{core/syntax/signature:classct4l_1_1_connective_1ab3e5d8989d077371fb4a12229cdfe17e}{{3.1.1}{9}{}{section*.27}{}}
\newlabel{core/syntax/signature:_CPPv4N4ct4l13PropSignatureE}{{3.1.1}{9}{API}{section*.28}{}}
\newlabel{core/syntax/signature:classct4l_1_1_prop_signature}{{3.1.1}{9}{API}{section*.29}{}}
\newlabel{core/syntax/signature:_CPPv4N4ct4l13PropSignature13PropSignatureEv}{{3.1.1}{10}{}{section*.30}{}}
\newlabel{core/syntax/signature:classct4l_1_1_prop_signature_1a4e65f45ff3e3af5490cf1bdb72d9dc96}{{3.1.1}{10}{}{section*.32}{}}
\newlabel{core/syntax/signature:_CPPv4N4ct4l13PropSignature13PropSignatureERKNSt16initializer_listI10ConnectiveEE}{{3.1.1}{10}{}{section*.33}{}}
\newlabel{core/syntax/signature:classct4l_1_1_prop_signature_1aed40a6cce0fde1400f6a8f7fc551024b}{{3.1.1}{10}{}{section*.35}{}}
\newlabel{core/syntax/signature:_CPPv4NK4ct4l13PropSignatureclERKi}{{3.1.1}{10}{}{section*.36}{}}
\newlabel{core/syntax/signature:classct4l_1_1_prop_signature_1a72e3e9c640719b9c96da04746827b57f}{{3.1.1}{10}{}{section*.38}{}}
\newlabel{core/syntax/signature:_CPPv4NK4ct4l13PropSignature5beginEv}{{3.1.1}{10}{}{section*.39}{}}
\newlabel{core/syntax/signature:classct4l_1_1_prop_signature_1a8caa5e5da67a4018fb1e3d13a678e1ab}{{3.1.1}{10}{}{section*.41}{}}
\newlabel{core/syntax/signature:_CPPv4NK4ct4l13PropSignature3endEv}{{3.1.1}{10}{}{section*.42}{}}
\newlabel{core/syntax/signature:classct4l_1_1_prop_signature_1a4a062bed8eb89efd2f6683f44b96ee27}{{3.1.1}{10}{}{section*.44}{}}
\newlabel{core/syntax/signature:_CPPv4NK4ct4l13PropSignature8is_emptyEv}{{3.1.1}{10}{}{section*.45}{}}
\newlabel{core/syntax/signature:classct4l_1_1_prop_signature_1a396f6419d05339879eafc6f4dc05849e}{{3.1.1}{10}{}{section*.47}{}}
\newlabel{core/syntax/signature:_CPPv4N4ct4l13PropSignature3addERK10Connective}{{3.1.1}{10}{}{section*.48}{}}
\newlabel{core/syntax/signature:classct4l_1_1_prop_signature_1a39922033ab092c5204a048e70dbf2d14}{{3.1.1}{10}{}{section*.50}{}}
\newlabel{core/syntax/signature:_CPPv4N4ct4l13PropSignature3addENSt10shared_ptrI10ConnectiveEE}{{3.1.1}{10}{}{section*.51}{}}
\newlabel{core/syntax/signature:classct4l_1_1_prop_signature_1aee97667e024404a666dd1a199e18d861}{{3.1.1}{10}{}{section*.53}{}}
\newlabel{core/syntax/signature:_CPPv4N4ct4l13PropSignaturepLERK10Connective}{{3.1.1}{11}{}{section*.54}{}}
\newlabel{core/syntax/signature:classct4l_1_1_prop_signature_1a26d872be270a9b512bcb8feb3d150320}{{3.1.1}{11}{}{section*.56}{}}
\newlabel{core/syntax/signature:_CPPv4N4ct4l13PropSignaturepLENSt10shared_ptrI10ConnectiveEE}{{3.1.1}{11}{}{section*.57}{}}
\newlabel{core/syntax/signature:classct4l_1_1_prop_signature_1a6569b8174b73a7128a5ada64adfa9435}{{3.1.1}{11}{}{section*.59}{}}
\newlabel{core/syntax/signature:_CPPv4N4ct4l13PropSignatureplERK10Connective}{{3.1.1}{11}{}{section*.60}{}}
\newlabel{core/syntax/signature:classct4l_1_1_prop_signature_1a9f41869e42a1e3974c6af2db78555db4}{{3.1.1}{11}{}{section*.62}{}}
\newlabel{core/syntax/signature:_CPPv4N4ct4l13PropSignatureplENSt10shared_ptrI10ConnectiveEE}{{3.1.1}{11}{}{section*.63}{}}
\newlabel{core/syntax/signature:classct4l_1_1_prop_signature_1ae1f8fcde0fc2e200ba17211056337032}{{3.1.1}{11}{}{section*.65}{}}
\newlabel{core/syntax/signature:_CPPv4N4ct4l13PropSignature4joinERK13PropSignature}{{3.1.1}{11}{}{section*.66}{}}
\newlabel{core/syntax/signature:classct4l_1_1_prop_signature_1a3938e27c186fabc41c56550aa6b55583}{{3.1.1}{11}{}{section*.68}{}}
\newlabel{core/syntax/signature:_CPPv4N4ct4l13PropSignaturepLERK13PropSignature}{{3.1.1}{11}{}{section*.69}{}}
\newlabel{core/syntax/signature:classct4l_1_1_prop_signature_1a09f4a4745126f3a3153d30e24be9b4bd}{{3.1.1}{11}{}{section*.71}{}}
\newlabel{core/syntax/signature:_CPPv4NK4ct4l13PropSignatureplERK13PropSignature}{{3.1.1}{12}{}{section*.72}{}}
\newlabel{core/syntax/signature:classct4l_1_1_prop_signature_1a2b8b857adcfce471dd5bfc3e62e80ed8}{{3.1.1}{12}{}{section*.74}{}}
\newlabel{core/syntax/signature:_CPPv4NK4ct4l13PropSignature4sizeEv}{{3.1.1}{12}{}{section*.75}{}}
\newlabel{core/syntax/signature:classct4l_1_1_prop_signature_1a9fa761bcd63dd7d63369b7a1c36ae226}{{3.1.1}{12}{}{section*.77}{}}
\newlabel{core/syntax/signature:_CPPv4NK4ct4l13PropSignatureixERKNSt6stringE}{{3.1.1}{12}{}{section*.78}{}}
\newlabel{core/syntax/signature:classct4l_1_1_prop_signature_1a8aabad75e26ba5494600aa517fe21681}{{3.1.1}{12}{}{section*.80}{}}
\newlabel{core/syntax/signature:_CPPv4NK4ct4l13PropSignatureeqERK13PropSignature}{{3.1.1}{12}{}{section*.81}{}}
\newlabel{core/syntax/signature:classct4l_1_1_prop_signature_1a273ead07e7d3c69048d4d64206822ecd}{{3.1.1}{12}{}{section*.83}{}}
\newlabel{core/syntax/signature:_CPPv4NK4ct4l13PropSignatureneERK13PropSignature}{{3.1.1}{12}{}{section*.84}{}}
\newlabel{core/syntax/signature:classct4l_1_1_prop_signature_1af5a5181b206f8bdbfcc24097bb346b0c}{{3.1.1}{12}{}{section*.86}{}}
\@writefile{toc}{\contentsline {section}{\numberline {3.2}Semantics}{13}{section.3.2}\protected@file@percent }
\newlabel{core/semantics/index:semantics}{{3.2}{13}{Semantics}{section.3.2}{}}
\newlabel{core/semantics/index::doc}{{3.2}{13}{Semantics}{section.3.2}{}}
\@writefile{toc}{\contentsline {subsection}{\numberline {3.2.1}Domains}{13}{subsection.3.2.1}\protected@file@percent }
\newlabel{core/semantics/domains:domains}{{3.2.1}{13}{Domains}{subsection.3.2.1}{}}
\newlabel{core/semantics/domains::doc}{{3.2.1}{13}{Domains}{subsection.3.2.1}{}}
\@writefile{toc}{\contentsline {subsubsection}{API}{13}{subsubsection*.87}\protected@file@percent }
\newlabel{core/semantics/domains:api}{{3.2.1}{13}{API}{subsubsection*.87}{}}
\newlabel{core/semantics/domains:_CPPv4I0EN4ct4l6DomainE}{{3.2.1}{13}{API}{section*.88}{}}
\newlabel{core/semantics/domains:classct4l_1_1_domain}{{3.2.1}{13}{API}{section*.89}{}}
\newlabel{core/semantics/domains:_CPPv4N4ct4l6Domain6DomainERKDT7_valuesE}{{3.2.1}{14}{}{section*.90}{}}
\newlabel{core/semantics/domains:classct4l_1_1_domain_1a1577c52c4e9161f3cd9ead498ac53644}{{3.2.1}{14}{}{section*.92}{}}
\newlabel{core/semantics/domains:_CPPv4N4ct4l6Domain6DomainERKNSt16initializer_listI1TEE}{{3.2.1}{14}{}{section*.93}{}}
\newlabel{core/semantics/domains:classct4l_1_1_domain_1ad7ca9c6ac06d02a61b7e7236369cfa92}{{3.2.1}{14}{}{section*.95}{}}
\newlabel{core/semantics/domains:_CPPv4NK4ct4l6Domain6valuesEv}{{3.2.1}{14}{}{section*.96}{}}
\newlabel{core/semantics/domains:classct4l_1_1_domain_1a76534ce5ec724af06becbb3239425173}{{3.2.1}{14}{}{section*.98}{}}
\newlabel{core/semantics/domains:_CPPv4NK4ct4l6Domain10values_setEv}{{3.2.1}{14}{}{section*.99}{}}
\newlabel{core/semantics/domains:classct4l_1_1_domain_1ade8f0b56122794651055f74ebf9e8255}{{3.2.1}{14}{}{section*.101}{}}
\newlabel{core/semantics/domains:_CPPv4NK4ct4l6Domain11translationEv}{{3.2.1}{14}{}{section*.102}{}}
\newlabel{core/semantics/domains:classct4l_1_1_domain_1abc60a4c3be0e3acfe1d43ae60c8ff7c7}{{3.2.1}{14}{}{section*.104}{}}
\newlabel{core/semantics/domains:_CPPv4NK4ct4l6Domain4sizeEv}{{3.2.1}{14}{}{section*.105}{}}
\newlabel{core/semantics/domains:classct4l_1_1_domain_1ad034512a9433a41e9ab85c034198f1ba}{{3.2.1}{14}{}{section*.107}{}}
\newlabel{core/semantics/domains:_CPPv4NK4ct4l6Domain11to_internalERK1T}{{3.2.1}{14}{}{section*.108}{}}
\newlabel{core/semantics/domains:classct4l_1_1_domain_1af2b94e6dec0d075a348688cfb5fb39e4}{{3.2.1}{14}{}{section*.110}{}}
\newlabel{core/semantics/domains:_CPPv4NK4ct4l6Domain11to_internalERKNSt3setI1TEE}{{3.2.1}{14}{}{section*.111}{}}
\newlabel{core/semantics/domains:classct4l_1_1_domain_1ae9e778fe0c1dd74cfa2f66043327fa32}{{3.2.1}{14}{}{section*.113}{}}
\newlabel{core/semantics/domains:_CPPv4NK4ct4l6Domain11to_internalERKNSt6vectorI1TEE}{{3.2.1}{15}{}{section*.114}{}}
\newlabel{core/semantics/domains:classct4l_1_1_domain_1a044c9be33e642e49c4d643bfbbdd098b}{{3.2.1}{15}{}{section*.116}{}}
\newlabel{core/semantics/domains:_CPPv4NK4ct4l6Domain9to_domainERKi}{{3.2.1}{15}{}{section*.117}{}}
\newlabel{core/semantics/domains:classct4l_1_1_domain_1a155fdf261a4c9d3cd6b31d7cee7d52e6}{{3.2.1}{15}{}{section*.119}{}}
\newlabel{core/semantics/domains:_CPPv4NK4ct4l6Domain9to_domainERKNSt3setIiEE}{{3.2.1}{15}{}{section*.120}{}}
\newlabel{core/semantics/domains:classct4l_1_1_domain_1a74f627ce6f474bf8a2a55b5d7282f884}{{3.2.1}{15}{}{section*.122}{}}
\newlabel{core/semantics/domains:_CPPv4NK4ct4l6Domain9to_domainERKNSt6vectorIiEE}{{3.2.1}{15}{}{section*.123}{}}
\newlabel{core/semantics/domains:classct4l_1_1_domain_1ada597004c309d3a8dfe0b68ea882f8d7}{{3.2.1}{15}{}{section*.125}{}}
\newlabel{core/semantics/domains:_CPPv4NK4ct4l6DomaineqERK6DomainI1TE}{{3.2.1}{15}{}{section*.126}{}}
\newlabel{core/semantics/domains:classct4l_1_1_domain_1ad8c3d7d85ee714d652393282964a1d13}{{3.2.1}{15}{}{section*.128}{}}
\newlabel{core/semantics/domains:_CPPv4NK4ct4l6DomainneERK6DomainI1TE}{{3.2.1}{15}{}{section*.129}{}}
\newlabel{core/semantics/domains:classct4l_1_1_domain_1a59dadc39d1350d99ad92529b337e018e}{{3.2.1}{15}{}{section*.131}{}}
\@writefile{toc}{\contentsline {subsection}{\numberline {3.2.2}Truth\sphinxhyphen {}tables}{16}{subsection.3.2.2}\protected@file@percent }
\newlabel{core/semantics/truth_tables:truth-tables}{{3.2.2}{16}{Truth\sphinxhyphen {}tables}{subsection.3.2.2}{}}
\newlabel{core/semantics/truth_tables::doc}{{3.2.2}{16}{Truth\sphinxhyphen {}tables}{subsection.3.2.2}{}}
\@writefile{toc}{\contentsline {subsubsection}{Constructing truth\sphinxhyphen {}tables}{16}{subsubsection*.132}\protected@file@percent }
\newlabel{core/semantics/truth_tables:constructing-truth-tables}{{3.2.2}{16}{Constructing truth\sphinxhyphen {}tables}{subsubsection*.132}{}}
\@writefile{toc}{\contentsline {subsubsection}{Manipulating truth\sphinxhyphen {}tables}{18}{subsubsection*.133}\protected@file@percent }
\newlabel{core/semantics/truth_tables:manipulating-truth-tables}{{3.2.2}{18}{Manipulating truth\sphinxhyphen {}tables}{subsubsection*.133}{}}
\@writefile{toc}{\contentsline {subsubsection}{Iterating over truth\sphinxhyphen {}tables}{18}{subsubsection*.134}\protected@file@percent }
\newlabel{core/semantics/truth_tables:iterating-over-truth-tables}{{3.2.2}{18}{Iterating over truth\sphinxhyphen {}tables}{subsubsection*.134}{}}
\@writefile{toc}{\contentsline {subsubsection}{API}{19}{subsubsection*.135}\protected@file@percent }
\newlabel{core/semantics/truth_tables:api}{{3.2.2}{19}{API}{subsubsection*.135}{}}
\newlabel{core/semantics/truth_tables:_CPPv4I0EN4ct4l11DeterminantE}{{3.2.2}{19}{API}{section*.136}{}}
\newlabel{core/semantics/truth_tables:structct4l_1_1_determinant}{{3.2.2}{19}{API}{section*.137}{}}
\newlabel{core/semantics/truth_tables:_CPPv4N4ct4l11Determinant11DeterminantEv}{{3.2.2}{19}{}{section*.138}{}}
\newlabel{core/semantics/truth_tables:structct4l_1_1_determinant_1abe42ba1c06d2ab145891183ec1779ac4}{{3.2.2}{19}{}{section*.140}{}}
\newlabel{core/semantics/truth_tables:_CPPv4N4ct4l11Determinant11DeterminantEDT6domainE}{{3.2.2}{19}{}{section*.141}{}}
\newlabel{core/semantics/truth_tables:structct4l_1_1_determinant_1a912c6a040e72b6cb497441b99488a1d2}{{3.2.2}{19}{}{section*.143}{}}
\newlabel{core/semantics/truth_tables:_CPPv4N4ct4l11Determinant11DeterminantERKDT9argumentsERKDT6outputEDT6domainE}{{3.2.2}{19}{}{section*.144}{}}
\newlabel{core/semantics/truth_tables:structct4l_1_1_determinant_1a63698697260109578c15083cc2984a7e}{{3.2.2}{19}{}{section*.146}{}}
\newlabel{core/semantics/truth_tables:_CPPv4NK4ct4l11DeterminanteqERK11Determinant}{{3.2.2}{19}{}{section*.147}{}}
\newlabel{core/semantics/truth_tables:structct4l_1_1_determinant_1a15919d5c0c57a3ae21beb62b4a8c7b80}{{3.2.2}{19}{}{section*.149}{}}
\newlabel{core/semantics/truth_tables:_CPPv4NK4ct4l11DeterminantneERK11Determinant}{{3.2.2}{19}{}{section*.150}{}}
\newlabel{core/semantics/truth_tables:structct4l_1_1_determinant_1a613cbba4920a96f61b6a8f8368d16fbc}{{3.2.2}{19}{}{section*.152}{}}
\newlabel{core/semantics/truth_tables:_CPPv4NK4ct4l11DeterminantltERK11Determinant}{{3.2.2}{19}{}{section*.153}{}}
\newlabel{core/semantics/truth_tables:structct4l_1_1_determinant_1a2758a8555da1d19e0a08df1fae89cb4b}{{3.2.2}{20}{}{section*.155}{}}
\newlabel{core/semantics/truth_tables:_CPPv4NK4ct4l11DeterminantmlEv}{{3.2.2}{20}{}{section*.156}{}}
\newlabel{core/semantics/truth_tables:structct4l_1_1_determinant_1a0dfa6baf835cc9fadfe7b764b3304e92}{{3.2.2}{20}{}{section*.158}{}}
\newlabel{core/semantics/truth_tables:_CPPv4N4ct4l11Determinant9argumentsE}{{3.2.2}{20}{}{section*.159}{}}
\newlabel{core/semantics/truth_tables:structct4l_1_1_determinant_1ad1450205194992c57ea057ba21e69ddb}{{3.2.2}{20}{}{section*.160}{}}
\newlabel{core/semantics/truth_tables:_CPPv4N4ct4l11Determinant6outputE}{{3.2.2}{20}{}{section*.161}{}}
\newlabel{core/semantics/truth_tables:structct4l_1_1_determinant_1a87bf5ee618b00edd892b75fb9d4462a0}{{3.2.2}{20}{}{section*.162}{}}
\newlabel{core/semantics/truth_tables:_CPPv4N4ct4l11Determinant6domainE}{{3.2.2}{20}{}{section*.163}{}}
\newlabel{core/semantics/truth_tables:structct4l_1_1_determinant_1acf973833c99509e331bb1d72845f68d7}{{3.2.2}{20}{}{section*.164}{}}
\newlabel{core/semantics/truth_tables:_CPPv4I0EN4ct4l11TruthTableIE}{{3.2.2}{20}{API}{section*.165}{}}
\newlabel{core/semantics/truth_tables:classct4l_1_1_truth_table_i}{{3.2.2}{20}{API}{section*.166}{}}
\newlabel{core/semantics/truth_tables:_CPPv4N4ct4l11TruthTableI11TruthTableIEDT7_domainERKDT6_arityE}{{3.2.2}{20}{}{section*.167}{}}
\newlabel{core/semantics/truth_tables:classct4l_1_1_truth_table_i_1a5e76b0b2c16d384d7c1d61e9db221501}{{3.2.2}{20}{}{section*.169}{}}
\newlabel{core/semantics/truth_tables:_CPPv4N4ct4l11TruthTableI11TruthTableIERKNSt6vectorI1TEERKDT6_arityE}{{3.2.2}{20}{}{section*.170}{}}
\newlabel{core/semantics/truth_tables:classct4l_1_1_truth_table_i_1a60a62d54665dc0e8312e266edede52dd}{{3.2.2}{20}{}{section*.172}{}}
\newlabel{core/semantics/truth_tables:_CPPv4NK4ct4l11TruthTableI3atiERKNSt6vectorIiEE}{{3.2.2}{21}{}{section*.173}{}}
\newlabel{core/semantics/truth_tables:classct4l_1_1_truth_table_i_1ad5f4d6ce61c916bc5c700059f89f2fed}{{3.2.2}{21}{}{section*.175}{}}
\newlabel{core/semantics/truth_tables:_CPPv4NK4ct4l11TruthTableI2atERKNSt6vectorI1TEE}{{3.2.2}{21}{}{section*.176}{}}
\newlabel{core/semantics/truth_tables:classct4l_1_1_truth_table_i_1a3877cfb01d1f95c530603e0eacdabeb2}{{3.2.2}{21}{}{section*.178}{}}
\newlabel{core/semantics/truth_tables:_CPPv4NK4ct4l11TruthTableIixERKNSt6vectorI1TEE}{{3.2.2}{21}{}{section*.179}{}}
\newlabel{core/semantics/truth_tables:classct4l_1_1_truth_table_i_1afb0a377f0842dfc750421fc021aab99b}{{3.2.2}{21}{}{section*.181}{}}
\newlabel{core/semantics/truth_tables:_CPPv4N4ct4l11TruthTableI4setiERKNSt6vectorIiEERKNSt3setIiEE}{{3.2.2}{21}{}{section*.182}{}}
\newlabel{core/semantics/truth_tables:classct4l_1_1_truth_table_i_1a399c2ff7dd001f963f46e8dab6f931e1}{{3.2.2}{21}{}{section*.184}{}}
\newlabel{core/semantics/truth_tables:_CPPv4N4ct4l11TruthTableI3setERKNSt6vectorI1TEERKNSt3setI1TEE}{{3.2.2}{21}{}{section*.185}{}}
\newlabel{core/semantics/truth_tables:classct4l_1_1_truth_table_i_1a6cb9107ca4e2953d4cfd98e1c98172fc}{{3.2.2}{21}{}{section*.187}{}}
\newlabel{core/semantics/truth_tables:_CPPv4NK4ct4l11TruthTableI5arityEv}{{3.2.2}{21}{}{section*.188}{}}
\newlabel{core/semantics/truth_tables:classct4l_1_1_truth_table_i_1abba3a0382d8e7b2320fa5ef35dd0f85d}{{3.2.2}{21}{}{section*.190}{}}
\newlabel{core/semantics/truth_tables:_CPPv4NK4ct4l11TruthTableI6domainEv}{{3.2.2}{22}{}{section*.191}{}}
\newlabel{core/semantics/truth_tables:classct4l_1_1_truth_table_i_1ab3074c4b546b71b166e6c44286e0ff96}{{3.2.2}{22}{}{section*.193}{}}
\newlabel{core/semantics/truth_tables:_CPPv4N4ct4l11TruthTableI5beginEv}{{3.2.2}{22}{}{section*.194}{}}
\newlabel{core/semantics/truth_tables:classct4l_1_1_truth_table_i_1a3cb496331fbcd7f944f1860b935ea7e4}{{3.2.2}{22}{}{section*.196}{}}
\newlabel{core/semantics/truth_tables:_CPPv4N4ct4l11TruthTableI3endEv}{{3.2.2}{22}{}{section*.197}{}}
\newlabel{core/semantics/truth_tables:classct4l_1_1_truth_table_i_1a97e72df07e112de4e701eac50d321d5e}{{3.2.2}{22}{}{section*.199}{}}
\newlabel{core/semantics/truth_tables:_CPPv4N4ct4l11TruthTableI8IteratorE}{{3.2.2}{22}{}{section*.200}{}}
\newlabel{core/semantics/truth_tables:structct4l_1_1_truth_table_i_1_1_iterator}{{3.2.2}{22}{}{section*.201}{}}
\newlabel{core/semantics/truth_tables:_CPPv4N4ct4l11TruthTableI8Iterator17iterator_categoryE}{{3.2.2}{22}{}{section*.202}{}}
\newlabel{core/semantics/truth_tables:structct4l_1_1_truth_table_i_1_1_iterator_1af555583d8856dadb65cf053618bb4532}{{3.2.2}{22}{}{section*.203}{}}
\newlabel{core/semantics/truth_tables:_CPPv4N4ct4l11TruthTableI8Iterator15difference_typeE}{{3.2.2}{22}{}{section*.204}{}}
\newlabel{core/semantics/truth_tables:structct4l_1_1_truth_table_i_1_1_iterator_1a4470fea7b5327798080978793127b269}{{3.2.2}{22}{}{section*.205}{}}
\newlabel{core/semantics/truth_tables:_CPPv4N4ct4l11TruthTableI8Iterator10value_typeE}{{3.2.2}{22}{}{section*.206}{}}
\newlabel{core/semantics/truth_tables:structct4l_1_1_truth_table_i_1_1_iterator_1a00bca9998ff96fb6d857f68e3e419ff8}{{3.2.2}{22}{}{section*.207}{}}
\newlabel{core/semantics/truth_tables:_CPPv4N4ct4l11TruthTableI8Iterator7pointerE}{{3.2.2}{22}{}{section*.208}{}}
\newlabel{core/semantics/truth_tables:structct4l_1_1_truth_table_i_1_1_iterator_1a37e9f94ee1f66b58c6815b95ba6e64df}{{3.2.2}{22}{}{section*.209}{}}
\newlabel{core/semantics/truth_tables:_CPPv4N4ct4l11TruthTableI8Iterator9referenceE}{{3.2.2}{22}{}{section*.210}{}}
\newlabel{core/semantics/truth_tables:structct4l_1_1_truth_table_i_1_1_iterator_1ac147019b8930832b052bf037a8b6de14}{{3.2.2}{22}{}{section*.211}{}}
\newlabel{core/semantics/truth_tables:_CPPv4N4ct4l11TruthTableI8Iterator8IteratorEiR11TruthTableI}{{3.2.2}{22}{}{section*.212}{}}
\newlabel{core/semantics/truth_tables:structct4l_1_1_truth_table_i_1_1_iterator_1a58d38314f324379b6a7a83a29dc75044}{{3.2.2}{22}{}{section*.214}{}}
\newlabel{core/semantics/truth_tables:_CPPv4N4ct4l11TruthTableI8Iterator6updateE7pointeri}{{3.2.2}{22}{}{section*.215}{}}
\newlabel{core/semantics/truth_tables:structct4l_1_1_truth_table_i_1_1_iterator_1a3982d9e06f483d4a251a48a0aaec6f14}{{3.2.2}{22}{}{section*.217}{}}
\newlabel{core/semantics/truth_tables:_CPPv4NK4ct4l11TruthTableI8IteratormlEv}{{3.2.2}{23}{}{section*.218}{}}
\newlabel{core/semantics/truth_tables:structct4l_1_1_truth_table_i_1_1_iterator_1a6ec6de223c802faee95faee2f11920de}{{3.2.2}{23}{}{section*.220}{}}
\newlabel{core/semantics/truth_tables:_CPPv4N4ct4l11TruthTableI8IteratorptEv}{{3.2.2}{23}{}{section*.221}{}}
\newlabel{core/semantics/truth_tables:structct4l_1_1_truth_table_i_1_1_iterator_1a4d7fd0d9fcc9a84e6b4be6e5f33969e8}{{3.2.2}{23}{}{section*.223}{}}
\newlabel{core/semantics/truth_tables:_CPPv4N4ct4l11TruthTableI8IteratorppEv}{{3.2.2}{23}{}{section*.224}{}}
\newlabel{core/semantics/truth_tables:structct4l_1_1_truth_table_i_1_1_iterator_1acce70475ac867a8b043dd5f708bfbda4}{{3.2.2}{23}{}{section*.226}{}}
\newlabel{core/semantics/truth_tables:_CPPv4N4ct4l11TruthTableI8IteratorppEi}{{3.2.2}{23}{}{section*.227}{}}
\newlabel{core/semantics/truth_tables:structct4l_1_1_truth_table_i_1_1_iterator_1a8b15edb4dbd7be5decc83bb6d878410c}{{3.2.2}{23}{}{section*.229}{}}
\newlabel{core/semantics/truth_tables:_CPPv4N4ct4l11TruthTableI8IteratoreqERK8IteratorRK8Iterator}{{3.2.2}{23}{}{section*.230}{}}
\newlabel{core/semantics/truth_tables:structct4l_1_1_truth_table_i_1_1_iterator_1adf9a9358b475317bd816d7b47a0f5cd1}{{3.2.2}{23}{}{section*.232}{}}
\newlabel{core/semantics/truth_tables:_CPPv4N4ct4l11TruthTableI8IteratorneERK8IteratorRK8Iterator}{{3.2.2}{23}{}{section*.233}{}}
\newlabel{core/semantics/truth_tables:structct4l_1_1_truth_table_i_1_1_iterator_1a27aed9f3ea67a677964fa51de28a5824}{{3.2.2}{23}{}{section*.235}{}}
\newlabel{core/semantics/truth_tables:_CPPv4I0EN4ct4l10TruthTableE}{{3.2.2}{23}{API}{section*.236}{}}
\newlabel{core/semantics/truth_tables:classct4l_1_1_truth_table}{{3.2.2}{23}{API}{section*.237}{}}
\newlabel{core/semantics/truth_tables:_CPPv4N4ct4l10TruthTable10TruthTableENSt10shared_ptrI6DomainI1TEEERKiRKNSt3setI1TEE}{{3.2.2}{23}{}{section*.238}{}}
\newlabel{core/semantics/truth_tables:classct4l_1_1_truth_table_1aa8bdcab8eb390b613acea6dc1b5e2008}{{3.2.2}{23}{}{section*.240}{}}
\newlabel{core/semantics/truth_tables:_CPPv4N4ct4l10TruthTable10TruthTableERKNSt6vectorI1TEERKiRKNSt3setI1TEE}{{3.2.2}{23}{}{section*.241}{}}
\newlabel{core/semantics/truth_tables:classct4l_1_1_truth_table_1a0ef6b301419aeeec158ed73a317dadb9}{{3.2.2}{23}{}{section*.243}{}}
\newlabel{core/semantics/truth_tables:_CPPv4N4ct4l10TruthTable10TruthTableENSt10shared_ptrI6DomainI1TEEERKiRKNSt3setI1TEERKNSt8functionIFNSt3setI1TEENSt6vectorI1TEEEEE}{{3.2.2}{24}{}{section*.244}{}}
\newlabel{core/semantics/truth_tables:classct4l_1_1_truth_table_1a02214cea5f70ee0276790fdff153d243}{{3.2.2}{24}{}{section*.246}{}}
\newlabel{core/semantics/truth_tables:_CPPv4N4ct4l10TruthTable10TruthTableERKNSt6vectorI1TEERKiRKNSt3setI1TEERKNSt8functionIFNSt3setI1TEENSt6vectorI1TEEEEE}{{3.2.2}{24}{}{section*.247}{}}
\newlabel{core/semantics/truth_tables:classct4l_1_1_truth_table_1a52c99ede400f35379cf5f21bd1c3a844}{{3.2.2}{24}{}{section*.249}{}}
\newlabel{core/semantics/truth_tables:_CPPv4N4ct4l10TruthTable10TruthTableENSt10shared_ptrI6DomainI1TEEERKiRKNSt8functionIFNSt3setI1TEENSt6vectorI1TEEEEE}{{3.2.2}{24}{}{section*.250}{}}
\newlabel{core/semantics/truth_tables:classct4l_1_1_truth_table_1ae8c015c3f427e3931ebbe25af6a60e47}{{3.2.2}{24}{}{section*.252}{}}
\newlabel{core/semantics/truth_tables:_CPPv4N4ct4l10TruthTable10TruthTableERKNSt6vectorI1TEERKiRKNSt8functionIFNSt3setI1TEENSt6vectorI1TEEEEE}{{3.2.2}{24}{}{section*.253}{}}
\newlabel{core/semantics/truth_tables:classct4l_1_1_truth_table_1a97252c875854ddc0a081f0d3cf9c8966}{{3.2.2}{24}{}{section*.255}{}}
\newlabel{core/semantics/truth_tables:_CPPv4N4ct4l10TruthTable10TruthTableENSt10shared_ptrI6DomainI1TEEERKiRKNSt3setI1TEERKNSt3mapINSt6vectorI1TEENSt3setI1TEEEE}{{3.2.2}{24}{}{section*.256}{}}
\newlabel{core/semantics/truth_tables:classct4l_1_1_truth_table_1a7d0788c163fda7a76acf6879a8b96a9d}{{3.2.2}{25}{}{section*.258}{}}
\newlabel{core/semantics/truth_tables:_CPPv4N4ct4l10TruthTable10TruthTableERKNSt6vectorI1TEERKiRKNSt3setI1TEERKNSt3mapINSt6vectorI1TEENSt3setI1TEEEE}{{3.2.2}{25}{}{section*.259}{}}
\newlabel{core/semantics/truth_tables:classct4l_1_1_truth_table_1ad1afba46c9f43cbe51f608afe1c9bb2e}{{3.2.2}{25}{}{section*.261}{}}
\newlabel{core/semantics/truth_tables:_CPPv4N4ct4l10TruthTable10TruthTableENSt10shared_ptrI6DomainI1TEEERKiRKNSt3mapINSt6vectorI1TEENSt3setI1TEEEE}{{3.2.2}{25}{}{section*.262}{}}
\newlabel{core/semantics/truth_tables:classct4l_1_1_truth_table_1a9beff40e23f1d873c4b4026f89a35eed}{{3.2.2}{25}{}{section*.264}{}}
\newlabel{core/semantics/truth_tables:_CPPv4N4ct4l10TruthTable10TruthTableERKNSt6vectorI1TEERKiRKNSt3mapINSt6vectorI1TEENSt3setI1TEEEE}{{3.2.2}{25}{}{section*.265}{}}
\newlabel{core/semantics/truth_tables:classct4l_1_1_truth_table_1a4f58cf9c07683b8cd8f8c5566268fa3e}{{3.2.2}{25}{}{section*.267}{}}
\newlabel{core/semantics/truth_tables:_CPPv4N4ct4l10TruthTable10TruthTableENSt10shared_ptrI6DomainI1TEEERKNSt3mapINSt6vectorI1TEENSt3setI1TEEEE}{{3.2.2}{25}{}{section*.268}{}}
\newlabel{core/semantics/truth_tables:classct4l_1_1_truth_table_1a6f41adcc97cd10bc95403d68d3fb510b}{{3.2.2}{25}{}{section*.270}{}}
\newlabel{core/semantics/truth_tables:_CPPv4N4ct4l10TruthTable10TruthTableERKNSt6vectorI1TEERKNSt3mapINSt6vectorI1TEENSt3setI1TEEEE}{{3.2.2}{26}{}{section*.271}{}}
\newlabel{core/semantics/truth_tables:classct4l_1_1_truth_table_1a3838ffce0fc442163857fe6cd1590caf}{{3.2.2}{26}{}{section*.273}{}}
\newlabel{core/semantics/truth_tables:_CPPv4NK4ct4l10TruthTable2atERKNSt6vectorI1TEE}{{3.2.2}{26}{}{section*.274}{}}
\newlabel{core/semantics/truth_tables:classct4l_1_1_truth_table_1a1092b71ba3e63466c0100905a4e5a4d1}{{3.2.2}{26}{}{section*.276}{}}
\newlabel{core/semantics/truth_tables:_CPPv4N4ct4l10TruthTable3setERKNSt6vectorI1TEERKNSt3setI1TEE}{{3.2.2}{26}{}{section*.277}{}}
\newlabel{core/semantics/truth_tables:classct4l_1_1_truth_table_1a4bb0758a3f5ddbd22c009f3759ca0703}{{3.2.2}{26}{}{section*.279}{}}
\newlabel{core/semantics/truth_tables:_CPPv4NK4ct4l10TruthTable3atiERKNSt6vectorIiEE}{{3.2.2}{26}{}{section*.280}{}}
\newlabel{core/semantics/truth_tables:classct4l_1_1_truth_table_1afecbe23c794ef3a844afce2d2b937584}{{3.2.2}{26}{}{section*.282}{}}
\newlabel{core/semantics/truth_tables:_CPPv4N4ct4l10TruthTable4setiERKNSt6vectorIiEERKNSt3setIiEE}{{3.2.2}{26}{}{section*.283}{}}
\newlabel{core/semantics/truth_tables:classct4l_1_1_truth_table_1a599e03136a20e4e8a83d823f99bdf6e3}{{3.2.2}{26}{}{section*.285}{}}
\@writefile{toc}{\contentsline {subsection}{\numberline {3.2.3}Multi\sphinxhyphen {}algebras}{27}{subsection.3.2.3}\protected@file@percent }
\newlabel{core/semantics/multi_algebras:multi-algebras}{{3.2.3}{27}{Multi\sphinxhyphen {}algebras}{subsection.3.2.3}{}}
\newlabel{core/semantics/multi_algebras:multi-algebras-page}{{3.2.3}{27}{Multi\sphinxhyphen {}algebras}{subsection.3.2.3}{}}
\newlabel{core/semantics/multi_algebras::doc}{{3.2.3}{27}{Multi\sphinxhyphen {}algebras}{subsection.3.2.3}{}}
\@writefile{toc}{\contentsline {subsubsection}{Example: Building the two\sphinxhyphen {}element Boolean algebra}{27}{subsubsection*.286}\protected@file@percent }
\newlabel{core/semantics/multi_algebras:example-building-the-two-element-boolean-algebra}{{3.2.3}{27}{Example: Building the two\sphinxhyphen {}element Boolean algebra}{subsubsection*.286}{}}
\newlabel{core/semantics/multi_algebras:boolean-algebra-example}{{3.2.3}{27}{Example: Building the two\sphinxhyphen {}element Boolean algebra}{subsubsection*.286}{}}
\@writefile{toc}{\contentsline {subsubsection}{Accessing the algebra operations}{28}{subsubsection*.287}\protected@file@percent }
\newlabel{core/semantics/multi_algebras:accessing-the-algebra-operations}{{3.2.3}{28}{Accessing the algebra operations}{subsubsection*.287}{}}
\@writefile{toc}{\contentsline {subsubsection}{Adding interpretations}{28}{subsubsection*.288}\protected@file@percent }
\newlabel{core/semantics/multi_algebras:adding-interpretations}{{3.2.3}{28}{Adding interpretations}{subsubsection*.288}{}}
\@writefile{toc}{\contentsline {subsubsection}{API}{28}{subsubsection*.289}\protected@file@percent }
\newlabel{core/semantics/multi_algebras:api}{{3.2.3}{28}{API}{subsubsection*.289}{}}
\newlabel{core/semantics/multi_algebras:_CPPv4I0EN4ct4l12MultiAlgebraE}{{3.2.3}{28}{API}{section*.290}{}}
\newlabel{core/semantics/multi_algebras:classct4l_1_1_multi_algebra}{{3.2.3}{28}{API}{section*.291}{}}
\newlabel{core/semantics/multi_algebras:_CPPv4N4ct4l12MultiAlgebra12MultiAlgebraEDT10_signatureEDT7_domainERKDT15_interpretationE}{{3.2.3}{29}{}{section*.292}{}}
\newlabel{core/semantics/multi_algebras:classct4l_1_1_multi_algebra_1ade210578168f15b5c53956befa6718c3}{{3.2.3}{29}{}{section*.294}{}}
\newlabel{core/semantics/multi_algebras:_CPPv4N4ct4l12MultiAlgebra12MultiAlgebraEDT7_domainERKDT15_interpretationE}{{3.2.3}{29}{}{section*.295}{}}
\newlabel{core/semantics/multi_algebras:classct4l_1_1_multi_algebra_1af9ae5f6526d9094bbbaedc97fa3dc69f}{{3.2.3}{29}{}{section*.297}{}}
\newlabel{core/semantics/multi_algebras:_CPPv4NK4ct4l12MultiAlgebra6domainEv}{{3.2.3}{29}{}{section*.298}{}}
\newlabel{core/semantics/multi_algebras:classct4l_1_1_multi_algebra_1a7cf1225cdd727eafdf5d610220faa471}{{3.2.3}{29}{}{section*.300}{}}
\newlabel{core/semantics/multi_algebras:_CPPv4NK4ct4l12MultiAlgebra9signatureEv}{{3.2.3}{29}{}{section*.301}{}}
\newlabel{core/semantics/multi_algebras:classct4l_1_1_multi_algebra_1a5bebe3a02b014c7aaef120f77bf4f6ef}{{3.2.3}{29}{}{section*.303}{}}
\newlabel{core/semantics/multi_algebras:_CPPv4NK4ct4l12MultiAlgebra14interpretationEv}{{3.2.3}{29}{}{section*.304}{}}
\newlabel{core/semantics/multi_algebras:classct4l_1_1_multi_algebra_1a577f7f5542222a74240b7ac76258cf5f}{{3.2.3}{29}{}{section*.306}{}}
\newlabel{core/semantics/multi_algebras:_CPPv4N4ct4l12MultiAlgebra9interpretERKNSt6stringENSt10shared_ptrI11TruthTableII1TEEE}{{3.2.3}{29}{}{section*.307}{}}
\newlabel{core/semantics/multi_algebras:classct4l_1_1_multi_algebra_1a6e8f60ecea1e6277f05c9d0418379262}{{3.2.3}{29}{}{section*.309}{}}
\newlabel{core/semantics/multi_algebras:_CPPv4NK4ct4l12MultiAlgebraixERKNSt6stringE}{{3.2.3}{29}{}{section*.310}{}}
\newlabel{core/semantics/multi_algebras:classct4l_1_1_multi_algebra_1a9ae62c9cc512e2ec47b7ca641d1ae21b}{{3.2.3}{29}{}{section*.312}{}}
\newlabel{core/semantics/multi_algebras:_CPPv4NK4ct4l12MultiAlgebra5beginEv}{{3.2.3}{30}{}{section*.313}{}}
\newlabel{core/semantics/multi_algebras:classct4l_1_1_multi_algebra_1a9881b5fadb1600d767f1e6486ba7769b}{{3.2.3}{30}{}{section*.315}{}}
\newlabel{core/semantics/multi_algebras:_CPPv4NK4ct4l12MultiAlgebra3endEv}{{3.2.3}{30}{}{section*.316}{}}
\newlabel{core/semantics/multi_algebras:classct4l_1_1_multi_algebra_1a231a0ca4ad52fdb22446ee1105f824e0}{{3.2.3}{30}{}{section*.318}{}}
\@writefile{toc}{\contentsline {subsection}{\numberline {3.2.4}PN\sphinxhyphen {}matrices}{30}{subsection.3.2.4}\protected@file@percent }
\newlabel{core/semantics/pnmatrices:pn-matrices}{{3.2.4}{30}{PN\sphinxhyphen {}matrices}{subsection.3.2.4}{}}
\newlabel{core/semantics/pnmatrices::doc}{{3.2.4}{30}{PN\sphinxhyphen {}matrices}{subsection.3.2.4}{}}
\@writefile{toc}{\contentsline {subsubsection}{Example: Classical Logic matrix}{30}{subsubsection*.319}\protected@file@percent }
\newlabel{core/semantics/pnmatrices:example-classical-logic-matrix}{{3.2.4}{30}{Example: Classical Logic matrix}{subsubsection*.319}{}}
\@writefile{toc}{\contentsline {subsubsection}{API}{30}{subsubsection*.320}\protected@file@percent }
\newlabel{core/semantics/pnmatrices:api}{{3.2.4}{30}{API}{subsubsection*.320}{}}
\newlabel{core/semantics/pnmatrices:_CPPv4I0EN4ct4l8PNMatrixE}{{3.2.4}{30}{API}{section*.321}{}}
\newlabel{core/semantics/pnmatrices:classct4l_1_1_p_n_matrix}{{3.2.4}{30}{API}{section*.322}{}}
\newlabel{core/semantics/pnmatrices:_CPPv4N4ct4l8PNMatrix8PNMatrixEDT8_algebraERKNSt6vectorINSt3setI1TEEEEb}{{3.2.4}{31}{}{section*.323}{}}
\newlabel{core/semantics/pnmatrices:classct4l_1_1_p_n_matrix_1ad89d652eb459745d4853bb3933592e42}{{3.2.4}{31}{}{section*.325}{}}
\newlabel{core/semantics/pnmatrices:_CPPv4NK4ct4l8PNMatrix5dsetsEv}{{3.2.4}{31}{}{section*.326}{}}
\newlabel{core/semantics/pnmatrices:classct4l_1_1_p_n_matrix_1a63e9a315acce30a06e4ef80979cf9136}{{3.2.4}{31}{}{section*.328}{}}
\newlabel{core/semantics/pnmatrices:_CPPv4NK4ct4l8PNMatrix12dsets_domainEv}{{3.2.4}{31}{}{section*.329}{}}
\newlabel{core/semantics/pnmatrices:classct4l_1_1_p_n_matrix_1a53065243a8bc39f9d12fcbdab76095d4}{{3.2.4}{31}{}{section*.331}{}}
\newlabel{core/semantics/pnmatrices:_CPPv4NK4ct4l8PNMatrix7algebraEv}{{3.2.4}{31}{}{section*.332}{}}
\newlabel{core/semantics/pnmatrices:classct4l_1_1_p_n_matrix_1af784d7e9aae6df486a9c261944848857}{{3.2.4}{31}{}{section*.334}{}}
\@writefile{toc}{\contentsline {section}{\numberline {3.3}Proof\sphinxhyphen {}theory}{31}{section.3.3}\protected@file@percent }
\newlabel{core/proof-theory/index:proof-theory}{{3.3}{31}{Proof\sphinxhyphen {}theory}{section.3.3}{}}
\newlabel{core/proof-theory/index::doc}{{3.3}{31}{Proof\sphinxhyphen {}theory}{section.3.3}{}}
\@writefile{toc}{\contentsline {chapter}{Index}{33}{section*.335}\protected@file@percent }
\gdef \@abspage@last{38}
